<?xml version="1.0" encoding="UTF-8"?>
<svg width="397px" height="280px" viewBox="0 0 397 280" version="1.1" xmlns="http://www.w3.org/2000/svg" xmlns:xlink="http://www.w3.org/1999/xlink">
    <title>Fill 1 Copy</title>
    <g id="Page-1" stroke="none" stroke-width="1" fill="none" fill-rule="evenodd">
        <path d="M-1.40971679e-11,89.6466316 C18.7384608,90.1605714 35.3115825,96.9422917 50.9137713,107.314064 C67.5666708,118.384439 115.578891,108.678525 156.443429,43.5051106 C212.171362,-45.3737113 405.344801,8.53167107 370.123138,145.273849 C353.078486,211.447269 421.99692,213.852752 386.880362,280 L1.63277777,279.883461 C0.544259255,179.762118 -1.40971679e-11,116.349841 -1.40971679e-11,89.6466316 Z" id="Fill-1-Copy" fill="#EBF3FA" transform="translate(198.500000, 140.000000) rotate(-180.000000) translate(-198.500000, -140.000000) "></path>
    </g>
</svg>