<?xml version="1.0" encoding="UTF-8"?>
<svg width="17px" height="17px" viewBox="0 0 17 17" version="1.1" xmlns="http://www.w3.org/2000/svg" xmlns:xlink="http://www.w3.org/1999/xlink">
    <title>link-72</title>
    <g id="Page-1" stroke="none" stroke-width="1" fill="none" fill-rule="evenodd">
        <g id="MAp-pop-up" transform="translate(-730.000000, -557.000000)" fill="#61B492" fill-rule="nonzero" stroke="#61B492" stroke-width="0.6">
            <g id="Group-12" transform="translate(310.000000, 226.000000)">
                <g id="link-72" transform="translate(421.000000, 332.000000)">
                    <path d="M7.722,5 C8.12666667,5.20192908 8.50133333,5.47116786 8.828,5.8111859 C9.58333333,6.59739088 10,7.64242592 10,8.75477066 C10,9.8671154 9.58333333,10.9121504 8.82866667,11.6990493 L8.82866667,11.6990493 L6.82866667,13.7800985 C6.07266667,14.5669974 5.06866667,15 4,15 C2.93133333,15 1.92733333,14.5669974 1.17133333,13.7800985 C0.416,12.9938936 0,11.9488585 0,10.8365138 C0,9.72416904 0.416,8.67913399 1.17133333,7.89292901 L1.17133333,7.89292901 L3.17133333,5.8111859 C3.22866667,5.75220318 3.28933333,5.69877177 3.34866667,5.64395254 C3.342,5.75497884 3.33333333,5.86669905 3.33333333,5.97911318 C3.33333333,6.47109847 3.39866667,6.95128721 3.51666667,7.4141281 L3.51666667,7.4141281 L2.114,8.87412393 C1.61066667,9.3987232 1.33333333,10.0954132 1.33333333,10.8365138 C1.33333333,11.5776143 1.61066667,12.2743044 2.11466667,12.7989036 C3.122,13.8481021 4.878,13.8481021 5.886,12.7989036 L5.886,12.7989036 L7.886,10.7178544 C8.38933333,10.1932552 8.66666667,9.49587121 8.66666667,8.75477066 C8.66666667,8.01367011 8.38866667,7.31698008 7.88533333,6.79238082 C7.738,6.63902574 7.574,6.51273333 7.40133333,6.40101311 C7.36,6.26708764 7.33333333,6.12691694 7.33333333,5.97911318 C7.33333333,5.60995073 7.472,5.26160572 7.722,5 Z M11,0 C12.0686667,0 13.0726667,0.433002567 13.8286667,1.21990146 C14.584,2.00610645 15,3.05114149 15,4.16348623 C15,5.27583096 14.584,6.32086601 13.8293333,7.10707099 L13.8293333,7.10707099 L11.8293333,9.1888141 C11.7726667,9.24779682 11.712,9.30053431 11.6526667,9.35535355 C11.6586667,9.24432725 11.6666667,9.13330095 11.6666667,9.02088682 C11.6666667,8.52959545 11.6,8.05010062 11.4813333,7.58795365 L11.4813333,7.58795365 L12.886,6.12587607 C13.3893333,5.6012768 13.6666667,4.90458677 13.6666667,4.16348623 C13.6666667,3.42238568 13.3893333,2.72569565 12.886,2.20109638 C12.382,1.67649712 11.712,1.38782874 11,1.38782874 C10.288,1.38782874 9.618,1.67649712 9.114,2.20109638 L9.114,2.20109638 L7.114,4.28214558 C6.61066667,4.80674485 6.33333333,5.50412879 6.33333333,6.24522934 C6.33333333,6.98632989 6.61133333,7.68301992 7.11533333,8.20761918 C7.26066667,8.35889251 7.424,8.48171536 7.596,8.58927208 C7.63933333,8.72597321 7.66666667,8.86961349 7.66666667,9.02088682 C7.66666667,9.39004927 7.528,9.73839428 7.27733333,10 C6.87266667,9.79807092 6.498,9.52883214 6.17133333,9.1888141 C5.416,8.40260912 5,7.35757408 5,6.24522934 C5,5.1328846 5.41666667,4.08784956 6.17133333,3.30095066 L6.17133333,3.30095066 L8.17133333,1.21990146 C8.92733333,0.433002567 9.93133333,0 11,0 Z" id="Combined-Shape"></path>
                </g>
            </g>
        </g>
    </g>
</svg>